TidyTuesday Astronauts
…
Questions

#Q: How many astronauts did a mission from 1961 till 2019 (by year)?
astronauts_by_year <- astronauts %>% group_by(year_of_mission) %>% summarise(n = n())

astronauts_by_year

# A tibble: 59 x 2
   year_of_mission     n
             <dbl> <int>
 1            1961     2
 2            1962     5
 3            1963     3
 4            1964     3
 5            1965    12
 6            1966    10
 7            1967     1
 8            1968     7
 9            1969    23
10            1970     5
# … with 49 more rows

#Q: What was their gender and status (military or civilian)?
astronauts_g_mc <- count(astronauts, year_of_mission, sex, military_civilian) 
astronauts_g_mc

# A tibble: 163 x 4
   year_of_mission sex    military_civilian     n
             <dbl> <chr>  <chr>             <int>
 1            1961 male   military              2
 2            1962 male   military              5
 3            1963 female military              1
 4            1963 male   military              2
 5            1964 male   civilian              2
 6            1964 male   military              1
 7            1965 male   military             12
 8            1966 male   civilian              2
 9            1966 male   military              8
10            1967 male   military              1
# … with 153 more rows
…
